<svg width="53" height="53" viewBox="0 0 53 53" fill="none" xmlns="http://www.w3.org/2000/svg">
<mask id="mask0_393_274" style="mask-type:alpha" maskUnits="userSpaceOnUse" x="0" y="0" width="53" height="53">
<rect width="53" height="53" fill="#D9D9D9"/>
</mask>
<g mask="url(#mask0_393_274)">
<path d="M26.5 37.5417C27.1257 37.5417 27.6502 37.33 28.0734 36.9068C28.4967 36.4835 28.7083 35.959 28.7083 35.3333C28.7083 34.7076 28.4967 34.1832 28.0734 33.7599C27.6502 33.3366 27.1257 33.125 26.5 33.125C25.8743 33.125 25.3498 33.3366 24.9266 33.7599C24.5033 34.1832 24.2917 34.7076 24.2917 35.3333C24.2917 35.959 24.5033 36.4835 24.9266 36.9068C25.3498 37.33 25.8743 37.5417 26.5 37.5417ZM24.2917 28.7083H28.7083V15.4583H24.2917V28.7083ZM18.2188 46.375L6.625 34.7812V18.2188L18.2188 6.625H34.7812L46.375 18.2188V34.7812L34.7812 46.375H18.2188ZM20.0958 41.9583H32.9042L41.9583 32.9042V20.0958L32.9042 11.0417H20.0958L11.0417 20.0958V32.9042L20.0958 41.9583Z" fill="#D8354C"/>
</g>
</svg>
